{
    "swagger": "2.0",
    "info": {
        "description": "The DIDCommConnector can be used as a Mediator and Connection Management Service by parties who want to set up trust with another party. The DIDCommConnector uses DIDComm v2 and provides a message layer and a management component for the following two use cases: - Pairing a cloud solution with a smartphone / app solution - DIDComm v2 based message protocols\n- Pairing a cloud solution with a smartphone / app solution - DIDComm v2 based message protocols\n- DIDComm v2 based message protocols",
        "title": "DIDComm Connector API",
        "termsOfService": "http://swagger.io/terms/",
        "contact": {
            "name": "API Support",
            "url": "http://www.change.this/url",
            "email": "email@todo.io"
        },
        "license": {
            "name": "Apache 2.0",
            "url": "http://www.apache.org/licenses/LICENSE-2.0.html"
        },
        "version": "1.0"
    },
    "host": "localhost:9090",
    "basePath": "/",
    "paths": {
        "/connections": {
            "get": {
                "description": "Returns a list with the existing connections",
                "consumes": [
                    "application/json"
                ],
                "produces": [
                    "application/json"
                ],
                "tags": [
                    "Connections"
                ],
                "summary": "Get connections",
                "responses": {
                    "200": {
                        "description": "OK",
                        "schema": {
                            "type": "array",
                            "items": {
                                "$ref": "#/definitions/database.Mediatee"
                            }
                        }
                    },
                    "500": {
                        "description": "Internal Server Error"
                    }
                }
            },
            "post": {
                "description": "Creates a new connection",
                "consumes": [
                    "application/json"
                ],
                "produces": [
                    "application/json"
                ],
                "tags": [
                    "Connections"
                ],
                "summary": "Create a new connection",
                "parameters": [
                    {
                        "description": "Connection",
                        "name": "connection",
                        "in": "body",
                        "required": true,
                        "schema": {
                            "$ref": "#/definitions/database.MediateeBase"
                        }
                    }
                ],
                "responses": {
                    "201": {
                        "description": "Created",
                        "schema": {
                            "type": "string"
                        }
                    },
                    "400": {
                        "description": "Bad Request"
                    },
                    "423": {
                        "description": "Locked"
                    },
                    "500": {
                        "description": "Internal Server Error"
                    }
                }
            }
        },
        "/connections/block/{did}": {
            "post": {
                "description": "Blocks connection",
                "consumes": [
                    "application/json"
                ],
                "produces": [
                    "application/json"
                ],
                "tags": [
                    "Connections"
                ],
                "summary": "Blocks connection",
                "parameters": [
                    {
                        "type": "string",
                        "description": "Did to be blocked",
                        "name": "did",
                        "in": "path",
                        "required": true
                    }
                ],
                "responses": {
                    "200": {
                        "description": "OK"
                    },
                    "500": {
                        "description": "Internal Server Error"
                    }
                }
            }
        },
        "/connections/isblocked/{did}": {
            "get": {
                "description": "Checks if a remoteDid is blocked",
                "consumes": [
                    "application/json"
                ],
                "produces": [
                    "application/json"
                ],
                "tags": [
                    "Connections"
                ],
                "summary": "Checks if a remoteDid is blocked",
                "parameters": [
                    {
                        "type": "string",
                        "description": "Did",
                        "name": "did",
                        "in": "path",
                        "required": true
                    }
                ],
                "responses": {
                    "201": {
                        "description": "Created",
                        "schema": {
                            "type": "boolean"
                        }
                    },
                    "500": {
                        "description": "Internal Server Error"
                    }
                }
            }
        },
        "/connections/unblock/{did}": {
            "post": {
                "description": "Blocks existing connection",
                "consumes": [
                    "application/json"
                ],
                "produces": [
                    "application/json"
                ],
                "tags": [
                    "Connections"
                ],
                "summary": "Unblock existing connection",
                "parameters": [
                    {
                        "type": "string",
                        "description": "Did to be unblocked",
                        "name": "did",
                        "in": "path",
                        "required": true
                    }
                ],
                "responses": {
                    "200": {
                        "description": "OK"
                    },
                    "500": {
                        "description": "Internal Server Error"
                    }
                }
            }
        },
        "/connections/{did}": {
            "get": {
                "description": "Returns a connection",
                "consumes": [
                    "application/json"
                ],
                "produces": [
                    "application/json"
                ],
                "tags": [
                    "Connections"
                ],
                "summary": "Get connection",
                "parameters": [
                    {
                        "type": "string",
                        "description": "DID",
                        "name": "did",
                        "in": "path",
                        "required": true
                    }
                ],
                "responses": {
                    "204": {
                        "description": "Deleted",
                        "schema": {
                            "$ref": "#/definitions/database.Mediatee"
                        }
                    },
                    "204": {
                        "description": "No object found"
                    },
                    "500": {
                        "description": "Internal Server Error"
                    }
                }
            },
            "delete": {
                "description": "Deletes a connection",
                "consumes": [
                    "application/json"
                ],
                "produces": [
                    "application/json"
                ],
                "tags": [
                    "Message"
                ],
                "summary": "Deletes a connection",
                "parameters": [
                    {
                        "type": "string",
                        "description": "DID",
                        "name": "did",
                        "in": "path",
                        "required": true
                    }
                ],
                "responses": {
                    "200": {
                        "description": "OK"
                    },
                    "500": {
                        "description": "Internal Server Error"
                    }
                }
            }
        },
        "/message/invitation": {
            "get": {
                "description": "Returns an invitation",
                "consumes": [
                    "application/json"
                ],
                "produces": [
                    "application/json"
                ],
                "tags": [
                    "Message"
                ],
                "summary": "Returns an invitation",
                "responses": {
                    "200": {
                        "description": "OK",
                        "schema": {
                            "type": "string"
                        }
                    }
                }
            }
        },
        "/message/receive": {
            "post": {
                "description": "Receives a DIDComm message",
                "consumes": [
                    "application/json"
                ],
                "produces": [
                    "application/json"
                ],
                "tags": [
                    "Message"
                ],
                "summary": "Receives a DIDComm message",
                "parameters": [
                    {
                        "description": "Message",
                        "name": "message",
                        "in": "body",
                        "required": true,
                        "schema": {
                            "$ref": "#/definitions/didcomm.Message"
                        }
                    }
                ],
                "responses": {
                    "200": {
                        "description": "OK"
                    },
                    "400": {
                        "description": "Bad Request"
                    },
                    "500": {
                        "description": "Internal Server Error"
                    }
                }
            }
        },
        "/messages/recipient/{did}/{limit}": {
            "get": {
                "description": "Returns an array of messages associated with a recipientDid",
                "consumes": [
                    "application/json"
                ],
                "produces": [
                    "application/json"
                ],
                "tags": [
                    "Messages"
                ],
                "summary": "Get messages for recipientDid",
                "parameters": [
                    {
                        "type": "string",
                        "description": "did",
                        "name": "did",
                        "in": "path",
                        "required": true
                    },
                    {
                        "type": "integer",
                        "description": "limit",
                        "name": "limit",
                        "in": "path",
                        "required": true
                    }
                ],
                "summary": "TODO",
                "responses": {
                    "200": {
                        "description": "OK",
                        "schema": {
                            "type": "array",
                            "items": {
                                "$ref": "#/definitions/didcomm.Attachment"
                            }
                        }
                    },
                    "500": {
                        "description": "Internal Server Error"
                    }
                }
            }
        }
    },
    "definitions": {
        "database.Mediatee": {
            "type": "object",
            "properties": {
                "added": {
                    "type": "string",
                    "example": "2024-01-16 12:23:34.952000+0000"
                },
                "properties": {
                    "type": "object",
                    "additionalProperties": {
                        "type": "string"
                    },
                    "example": {
                        "did": "remotedid:example:67890fghijk#key-2"
                    }
                },
                "protocol": {
                    "type": "string",
                    "example": "nats"
                },
                "recipientDids": {
                    "type": "array",
                    "items": {
                        "type": "string"
                    },
                    "example": [
                        "did:recipientdid:example:12345abcde#key-1",
                        "did:recipientdid:example:12345abcde#key-2"
                    ]
                },
                "remoteDid": {
                    "type": "string",
                    "example": "did:peer:2.Ez6LSjrTnGzLHVRhrpAkubSd5Fs9355B454sfJAimQedtgJ.Vz6MkqLpAm2EKufwbMxXqXNZwSVxtTh3LdYB8Vp7MCoTTkSUq.SeyJ0IjoiZG0iLCJzIjp7InVyaSI6Imh0dHA6Ly9sb2NhbGhvc3Q6OTA5MC9tZXNzYWdlL3JlY2VpdmUiLCJhIjpbImRpZGNvbW0vdjIiXSwiciI6W119fQ"
                },
                "routingKey": {
                    "type": "string",
                    "example": "did::routingkey:example:12345abcde#key-1"
                },
                "topic": {
                    "type": "string",
                    "example": "topic-example"
                }
            }
        },
        "database.MediateeBase": {
            "type": "object",
            "properties": {
                "properties": {
                    "type": "object",
                    "additionalProperties": {
                        "type": "string"
                    },
                    "example": {
                        "did": "remotedid:example:67890fghijk#key-2"
                    }
                },
                "protocol": {
                    "type": "string",
                    "example": "nats"
                },
                "remoteDid": {
                    "type": "string",
                    "example": "did:peer:2.Ez6LSjrTnGzLHVRhrpAkubSd5Fs9355B454sfJAimQedtgJ.Vz6MkqLpAm2EKufwbMxXqXNZwSVxtTh3LdYB8Vp7MCoTTkSUq.SeyJ0IjoiZG0iLCJzIjp7InVyaSI6Imh0dHA6Ly9sb2NhbGhvc3Q6OTA5MC9tZXNzYWdlL3JlY2VpdmUiLCJhIjpbImRpZGNvbW0vdjIiXSwiciI6W119fQ"
                },
                "topic": {
                    "type": "string",
                    "example": "topic-example"
                }
            }
        },
        "didcomm.Attachment": {
            "type": "object",
            "properties": {
                "byteCount": {
                    "type": "integer"
                },
                "data": {},
                "description": {
                    "type": "string"
                },
                "filename": {
                    "type": "string"
                },
                "format": {
                    "type": "string"
                },
                "id": {
                    "type": "string"
                },
                "lastmodTime": {
                    "type": "integer"
                },
                "mediaType": {
                    "type": "string"
                }
            }
        },
        "didcomm.Message": {
            "type": "object",
            "properties": {
                "attachments": {
                    "type": "array",
                    "items": {
                        "$ref": "#/definitions/didcomm.Attachment"
                    }
                },
                "body": {
                    "type": "string"
                },
                "createdTime": {
                    "type": "integer"
                },
                "expiresTime": {
                    "type": "integer"
                },
                "extraHeaders": {
                    "type": "object",
                    "additionalProperties": {
                        "type": "string"
                    }
                },
                "from": {
                    "type": "string"
                },
                "fromPrior": {
                    "type": "string"
                },
                "id": {
                    "type": "string"
                },
                "pthid": {
                    "type": "string"
                },
                "thid": {
                    "type": "string"
                },
                "to": {
                    "type": "array",
                    "items": {
                        "type": "string"
                    }
                },
                "typ": {
                    "type": "string"
                },
                "type": {
                    "type": "string"
                }
            }
        }
    },
    "securityDefinitions": {
        "ApiKeyAuth": {
            "description": "Description for what is this security definition being used",
            "type": "apiKey",
            "name": "Authorization",
            "in": "header"
        },
        "BasicAuth": {
            "type": "basic"
        },
        "OAuth2AccessCode": {
            "type": "oauth2",
            "flow": "accessCode",
            "authorizationUrl": "https://example.com/oauth/authorize",
            "tokenUrl": "https://example.com/oauth/token",
            "scopes": {
                "admin": "\t\t\t\t\t\t\tGrants read and write access to administrative information"
            }
        },
        "OAuth2Application": {
            "type": "oauth2",
            "flow": "application",
            "tokenUrl": "https://example.com/oauth/token",
            "scopes": {
                "admin": "\t\t\t\t\t\t\tGrants read and write access to administrative information",
                "write": "\t\t\t\t\t\t\tGrants write access"
            }
        },
        "OAuth2Implicit": {
            "type": "oauth2",
            "flow": "implicit",
            "authorizationUrl": "https://example.com/oauth/authorize",
            "scopes": {
                "admin": "\t\t\t\t\t\t\tGrants read and write access to administrative information",
                "write": "\t\t\t\t\t\t\tGrants write access"
            }
        },
        "OAuth2Password": {
            "type": "oauth2",
            "flow": "password",
            "tokenUrl": "https://example.com/oauth/token",
            "scopes": {
                "admin": "\t\t\t\t\t\t\tGrants read and write access to administrative information",
                "read": "\t\t\t\t\t\t\t\tGrants read access",
                "write": "\t\t\t\t\t\t\tGrants write access"
            }
        }
    }
}